topic7 Q0 talk.politics.mideast/76421 1 239.70631937717187 groupF_large
topic7 Q0 talk.politics.mideast/76539 2 138.31290302838744 groupF_large
topic7 Q0 talk.politics.mideast/76345 3 137.70315350635798 groupF_large
topic7 Q0 talk.politics.mideast/76131 4 136.27355830202364 groupF_large
topic7 Q0 talk.politics.mideast/77211 5 122.37675999035099 groupF_large
topic7 Q0 talk.politics.mideast/76344 6 120.89785100537662 groupF_large
topic7 Q0 talk.politics.mideast/76393 7 115.92205377996572 groupF_large
topic7 Q0 talk.politics.mideast/77214 8 115.1067600717424 groupF_large
topic7 Q0 talk.politics.mideast/76034 9 113.85970385568895 groupF_large
topic7 Q0 talk.politics.mideast/77227 10 113.57863182704862 groupF_large
