topic1 Q0 misc.forsale/76442 1 157.37518275945743 groupF_large
topic1 Q0 misc.forsale/76056 2 92.94537770032493 groupF_large
topic1 Q0 rec.autos/102958 3 81.13096306372161 groupF_large
topic1 Q0 talk.politics.misc/178975 4 44.51351403385034 groupF_large
topic1 Q0 talk.politics.misc/178951 5 42.53388335979619 groupF_large
topic1 Q0 talk.politics.misc/178992 6 42.040600287093355 groupF_large
topic1 Q0 talk.politics.misc/178952 7 41.05143489844671 groupF_large
topic1 Q0 misc.forsale/76160 8 40.99080800332465 groupF_large
topic1 Q0 sci.electronics/53807 9 39.62452737162394 groupF_large
topic1 Q0 alt.atheism/53799 10 39.26200314129691 groupF_large
