topic10 Q0 rec.motorcycles/104798 1 239.64635527430656 groupF_large
topic10 Q0 rec.motorcycles/104365 2 147.74186673101852 groupF_large
topic10 Q0 rec.motorcycles/104633 3 143.34810055453983 groupF_large
topic10 Q0 rec.motorcycles/104290 4 141.19549946412474 groupF_large
topic10 Q0 rec.motorcycles/105103 5 140.66839741111843 groupF_large
topic10 Q0 rec.motorcycles/103205 6 138.17405232657623 groupF_large
topic10 Q0 rec.motorcycles/104628 7 137.7254198403009 groupF_large
topic10 Q0 rec.motorcycles/104452 8 133.88145571112864 groupF_large
topic10 Q0 rec.motorcycles/104771 9 133.8361613132378 groupF_large
topic10 Q0 rec.motorcycles/104412 10 133.24398011463057 groupF_large
