topic6 Q0 misc.forsale/76838 1 106.86381492296526 groupF_large
topic6 Q0 talk.politics.mideast/76479 2 91.00221901598482 groupF_large
topic6 Q0 talk.politics.mideast/75881 3 90.68977230575531 groupF_large
topic6 Q0 talk.politics.mideast/76266 4 89.61255350422282 groupF_large
topic6 Q0 sci.space/60252 5 87.76631983407763 groupF_large
topic6 Q0 sci.crypt/16123 6 87.75987444779989 groupF_large
topic6 Q0 talk.politics.mideast/75408 7 87.1804727539141 groupF_large
topic6 Q0 comp.sys.ibm.pc.hardware/60439 8 86.83254052550734 groupF_large
topic6 Q0 talk.religion.misc/82810 9 85.42777315143672 groupF_large
topic6 Q0 talk.politics.misc/178571 10 85.29460559448484 groupF_large
