topic20 Q0 sci.med/59527 1 179.81939187016005 groupF_large
topic20 Q0 sci.med/59034 2 178.39625794597598 groupF_large
topic20 Q0 sci.med/59475 3 166.39916422707324 groupF_large
topic20 Q0 sci.med/59206 4 158.90893874084907 groupF_large
topic20 Q0 sci.med/59224 5 152.04146115528692 groupF_large
topic20 Q0 sci.med/59548 6 80.45993632891316 groupF_large
topic20 Q0 sci.med/59234 7 79.55737865506647 groupF_large
topic20 Q0 sci.med/59255 8 78.3037765131152 groupF_large
topic20 Q0 talk.religion.misc/83442 9 76.046581879118 groupF_large
topic20 Q0 talk.politics.misc/178394 10 74.74429393555019 groupF_large
