topic9 Q0 sci.electronics/53694 1 54.76332276957118 groupF_large
topic9 Q0 sci.electronics/53639 2 51.39440812356836 groupF_large
topic9 Q0 sci.electronics/54148 3 46.546266899388 groupF_large
topic9 Q0 sci.electronics/54076 4 44.82948205980721 groupF_large
topic9 Q0 sci.electronics/53946 5 43.941887486157356 groupF_large
topic9 Q0 sci.electronics/53544 6 43.195490761364695 groupF_large
topic9 Q0 sci.electronics/53951 7 42.23567344589413 groupF_large
topic9 Q0 sci.electronics/53532 8 41.74892756188908 groupF_large
topic9 Q0 sci.electronics/52762 9 41.331124997201044 groupF_large
topic9 Q0 sci.electronics/52743 10 41.05641824647144 groupF_large
