topic4 Q0 sci.electronics/53719 1 165.7858106844265 groupF_large
topic4 Q0 comp.graphics/38725 2 75.91484426218908 groupF_large
topic4 Q0 comp.graphics/38300 3 61.3796217387031 groupF_large
topic4 Q0 sci.crypt/15587 4 59.79283395372232 groupF_large
topic4 Q0 comp.graphics/38296 5 55.47150753632726 groupF_large
topic4 Q0 comp.graphics/38569 6 52.87102735843743 groupF_large
topic4 Q0 sci.med/59196 7 51.0658016238021 groupF_large
topic4 Q0 sci.med/58814 8 50.283293654586856 groupF_large
topic4 Q0 comp.sys.ibm.pc.hardware/61068 9 42.92724287490232 groupF_large
topic4 Q0 comp.sys.mac.hardware/52337 10 42.435471057212794 groupF_large
