topic1 Q0 misc.forsale/76442 1 164.73683061485985 groupF_large
topic1 Q0 misc.forsale/76056 2 97.75662973202725 groupF_large
topic1 Q0 rec.autos/102958 3 84.98446319022949 groupF_large
topic1 Q0 talk.politics.misc/178975 4 47.16019088485987 groupF_large
topic1 Q0 talk.politics.misc/178951 5 44.559187651869856 groupF_large
topic1 Q0 talk.politics.misc/178992 6 44.04285055328191 groupF_large
topic1 Q0 talk.politics.misc/178952 7 43.30905282776639 groupF_large
topic1 Q0 misc.forsale/76160 8 42.620703461862576 groupF_large
topic1 Q0 sci.electronics/53807 9 42.33015394289696 groupF_large
topic1 Q0 alt.atheism/53799 10 41.550648645838855 groupF_large
