topic3 Q0 talk.politics.mideast/76478 1 116.33298910738483 groupF_large
topic3 Q0 talk.politics.mideast/77384 2 114.25738016412312 groupF_large
topic3 Q0 talk.politics.misc/179058 3 113.71390278674177 groupF_large
topic3 Q0 talk.politics.misc/179040 4 113.47328411538213 groupF_large
topic3 Q0 talk.politics.mideast/77280 5 110.53969137255697 groupF_large
topic3 Q0 talk.politics.misc/176944 6 105.19346107783893 groupF_large
topic3 Q0 talk.politics.mideast/77377 7 104.51890596520502 groupF_large
topic3 Q0 talk.politics.mideast/77383 8 104.47319979287792 groupF_large
topic3 Q0 talk.politics.misc/178571 9 104.17572039571402 groupF_large
topic3 Q0 talk.politics.mideast/77811 10 104.03792988014399 groupF_large
