topic3 Q0 talk.politics.mideast/76478 1 112.05320841249733 groupF_large
topic3 Q0 talk.politics.misc/179040 2 104.2629653266423 groupF_large
topic3 Q0 talk.politics.mideast/77383 3 96.84293177258193 groupF_large
topic3 Q0 talk.politics.mideast/77280 4 94.89535837905882 groupF_large
topic3 Q0 talk.politics.mideast/77335 5 89.77773893690504 groupF_large
topic3 Q0 talk.politics.mideast/77384 6 89.47800187880553 groupF_large
topic3 Q0 talk.politics.mideast/77285 7 88.80062989042933 groupF_large
topic3 Q0 talk.politics.mideast/77298 8 85.62567075760579 groupF_large
topic3 Q0 talk.politics.mideast/77328 9 83.97151231920289 groupF_large
topic3 Q0 talk.politics.mideast/77377 10 81.77001664896216 groupF_large
