topic8 Q0 alt.atheism/53356 1 167.28022130271597 groupF_large
topic8 Q0 alt.atheism/51231 2 138.6840457283963 groupF_large
topic8 Q0 sci.med/59012 3 132.3650874579421 groupF_large
topic8 Q0 sci.med/58877 4 131.77761942625483 groupF_large
topic8 Q0 sci.med/58054 5 129.92893856985873 groupF_large
topic8 Q0 sci.med/58055 6 129.43047728650797 groupF_large
topic8 Q0 alt.atheism/53382 7 124.11679884208172 groupF_large
topic8 Q0 sci.med/59536 8 122.26815475904013 groupF_large
topic8 Q0 sci.med/59137 9 121.49085079505906 groupF_large
topic8 Q0 alt.atheism/53675 10 121.21314658559997 groupF_large
