topic1 Q0 misc.forsale/76442 1 211.62950997998968 groupF_large
topic1 Q0 misc.forsale/76056 2 124.88439943755047 groupF_large
topic1 Q0 rec.autos/102958 3 98.94100420544056 groupF_large
topic1 Q0 talk.politics.misc/178975 4 55.56300974189573 groupF_large
topic1 Q0 talk.politics.misc/178952 5 53.484879819984485 groupF_large
topic1 Q0 talk.politics.misc/178992 6 52.16862593781473 groupF_large
topic1 Q0 sci.electronics/53807 7 50.65304555281289 groupF_large
topic1 Q0 alt.atheism/53799 8 49.64421676798825 groupF_large
topic1 Q0 talk.politics.misc/178951 9 46.448433754313406 groupF_large
topic1 Q0 misc.forsale/76160 10 46.113693068803144 groupF_large
