topic5 Q0 sci.crypt/15560 1 159.09127752575617 groupF_large
topic5 Q0 sci.crypt/15616 2 145.42178343482846 groupF_large
topic5 Q0 sci.crypt/15522 3 97.66984315074241 groupF_large
topic5 Q0 sci.crypt/15789 4 88.46869685501864 groupF_large
topic5 Q0 sci.crypt/15537 5 83.25842797815311 groupF_large
topic5 Q0 sci.crypt/15971 6 82.79701593546578 groupF_large
topic5 Q0 sci.crypt/15988 7 81.42760586364871 groupF_large
topic5 Q0 sci.crypt/15891 8 79.38501594027208 groupF_large
topic5 Q0 comp.os.ms-windows.misc/9523 9 76.96708234613082 groupF_large
topic5 Q0 sci.crypt/15520 10 75.95132488434648 groupF_large
