topic10 Q0 rec.motorcycles/104798 1 247.89973071200097 groupF_large
topic10 Q0 rec.motorcycles/104365 2 154.74473756275455 groupF_large
topic10 Q0 rec.motorcycles/104633 3 148.61250215051425 groupF_large
topic10 Q0 rec.motorcycles/105103 4 145.17729683513812 groupF_large
topic10 Q0 rec.motorcycles/104290 5 143.05853890575946 groupF_large
topic10 Q0 rec.motorcycles/103205 6 140.27204161690634 groupF_large
topic10 Q0 rec.motorcycles/104628 7 138.87710998557222 groupF_large
topic10 Q0 rec.motorcycles/104771 8 133.9637466090525 groupF_large
topic10 Q0 rec.motorcycles/104446 9 131.9555172449742 groupF_large
topic10 Q0 rec.motorcycles/104412 10 129.9664040675503 groupF_large
