topic13 Q0 sci.crypt/15782 1 167.58757543010603 groupF_large
topic13 Q0 sci.crypt/15560 2 131.2164753137755 groupF_large
topic13 Q0 sci.crypt/15585 3 125.49119845263515 groupF_large
topic13 Q0 sci.crypt/15411 4 120.83223869521778 groupF_large
topic13 Q0 sci.crypt/15462 5 113.06686192726586 groupF_large
topic13 Q0 sci.crypt/15880 6 112.8754024425122 groupF_large
topic13 Q0 sci.crypt/15339 7 110.00805955578151 groupF_large
topic13 Q0 sci.crypt/15461 8 108.24960154898254 groupF_large
topic13 Q0 sci.crypt/15816 9 106.03908049508948 groupF_large
topic13 Q0 sci.crypt/15859 10 103.99126294141581 groupF_large
