topic1 Q0 misc.forsale/76442 1 285.144567391824 groupF_large
topic1 Q0 misc.forsale/76056 2 167.82852237922694 groupF_large
topic1 Q0 rec.autos/102958 3 117.81171878233624 groupF_large
topic1 Q0 talk.politics.misc/178952 4 68.58688501944809 groupF_large
topic1 Q0 talk.politics.misc/178975 5 67.26412371272616 groupF_large
topic1 Q0 talk.politics.misc/178992 6 63.37605096819246 groupF_large
topic1 Q0 sci.electronics/53807 7 62.68984052922195 groupF_large
topic1 Q0 alt.atheism/53799 8 61.04307598834464 groupF_large
topic1 Q0 misc.forsale/74787 9 51.464411927083944 groupF_large
topic1 Q0 misc.forsale/76160 10 50.9859379144836 groupF_large
