topic5 Q0 sci.crypt/15560 1 174.56199772730403 groupF_large
topic5 Q0 sci.crypt/15616 2 141.45023273759375 groupF_large
topic5 Q0 sci.crypt/15522 3 95.4730317239618 groupF_large
topic5 Q0 sci.crypt/15789 4 89.37377075089623 groupF_large
topic5 Q0 sci.crypt/15537 5 88.54310655187956 groupF_large
topic5 Q0 sci.crypt/15971 6 85.28239199969379 groupF_large
topic5 Q0 sci.crypt/15988 7 84.81756754386865 groupF_large
topic5 Q0 sci.crypt/15712 8 82.56746863216256 groupF_large
topic5 Q0 sci.crypt/15891 9 82.08726405716648 groupF_large
topic5 Q0 sci.crypt/15520 10 77.7724927711013 groupF_large
