topic1 Q0 misc.forsale/76442 1 199.37992820485104 groupF_large
topic1 Q0 misc.forsale/76056 2 117.21090223698985 groupF_large
topic1 Q0 rec.autos/102958 3 93.7433276567532 groupF_large
topic1 Q0 talk.politics.misc/178975 4 52.05208881433821 groupF_large
topic1 Q0 talk.politics.misc/178952 5 50.13273992528 groupF_large
topic1 Q0 talk.politics.misc/178992 6 49.373165492510175 groupF_large
topic1 Q0 sci.electronics/53807 7 47.0031871319978 groupF_large
topic1 Q0 alt.atheism/53799 8 46.48407262617812 groupF_large
topic1 Q0 talk.politics.misc/178951 9 44.19919656572073 groupF_large
topic1 Q0 misc.forsale/76160 10 44.11710126011561 groupF_large
