topic2 Q0 soc.religion.christian/20488 1 83.7668519137295 groupF_large
topic2 Q0 soc.religion.christian/21386 2 78.06140313985803 groupF_large
topic2 Q0 talk.religion.misc/83918 3 77.90304107766023 groupF_large
topic2 Q0 soc.religion.christian/21737 4 75.94980211214614 groupF_large
topic2 Q0 soc.religion.christian/21534 5 70.30581008479588 groupF_large
topic2 Q0 talk.religion.misc/84091 6 69.73889903379688 groupF_large
topic2 Q0 soc.religion.christian/20548 7 69.67339793398864 groupF_large
topic2 Q0 soc.religion.christian/20525 8 68.12520321685194 groupF_large
topic2 Q0 talk.politics.mideast/76479 9 67.78192657335785 groupF_large
topic2 Q0 talk.religion.misc/84334 10 67.10103877258267 groupF_large
