topic15 Q0 talk.politics.guns/54433 1 76.37297930799406 groupF_large
topic15 Q0 talk.religion.misc/83712 2 74.06430223997424 groupF_large
topic15 Q0 talk.politics.guns/54881 3 73.38488542579704 groupF_large
topic15 Q0 talk.religion.misc/84119 4 73.38488542579704 groupF_large
topic15 Q0 talk.politics.guns/55278 5 70.16800360650409 groupF_large
topic15 Q0 talk.politics.guns/54493 6 68.02534473650934 groupF_large
topic15 Q0 talk.politics.guns/54325 7 66.89621374427128 groupF_large
topic15 Q0 talk.religion.misc/83667 8 66.89621374427128 groupF_large
topic15 Q0 talk.religion.misc/83806 9 66.79099127533843 groupF_large
topic15 Q0 talk.politics.guns/54461 10 64.02905805158609 groupF_large
