topic5 Q0 sci.crypt/15560 1 139.30716317519014 groupF_large
topic5 Q0 sci.crypt/15616 2 132.17978242974803 groupF_large
topic5 Q0 sci.crypt/15522 3 86.69751594616778 groupF_large
topic5 Q0 sci.crypt/15789 4 78.39341057932123 groupF_large
topic5 Q0 sci.crypt/15971 5 73.55529018904703 groupF_large
topic5 Q0 comp.os.ms-windows.misc/9523 6 71.96954872301217 groupF_large
topic5 Q0 sci.crypt/15537 7 70.81344594104337 groupF_large
topic5 Q0 sci.crypt/15891 8 68.76985790976244 groupF_large
topic5 Q0 sci.crypt/16030 9 67.9628875031154 groupF_large
topic5 Q0 sci.crypt/15988 10 67.73911389787823 groupF_large
